{
  "CF_DayaTarik" : [ null, {
    "kode_dayatarik" : "T1",
    "nama_dayatarik" : "Kolam renang dari mata air bukit Gondo"
  }, {
    "kode_dayatarik" : "T2",
    "nama_dayatarik" : "Kolam renang prestasi"
  }, {
    "kode_dayatarik" : "T3",
    "nama_dayatarik" : "Kolam renang dengan permainan"
  }, {
    "kode_dayatarik" : "T4",
    "nama_dayatarik" : "Air terjun berundak"
  }, {
    "kode_dayatarik" : "T5",
    "nama_dayatarik" : "Gardu pandang air terjun"
  }, {
    "kode_dayatarik" : "T6",
    "nama_dayatarik" : "Agro hutan pinus"
  }, {
    "kode_dayatarik" : "T7",
    "nama_dayatarik" : "Pemandangan dari atas tebing"
  }, {
    "kode_dayatarik" : "T8",
    "nama_dayatarik" : "Kafe dalam hutan pinus"
  }, {
    "kode_dayatarik" : "T9",
    "nama_dayatarik" : "Lereng Gunung Prau"
  }, {
    "kode_dayatarik" : "T10",
    "nama_dayatarik" : "Melihat sunrise di atas awan"
  }, {
    "kode_dayatarik" : "T11",
    "nama_dayatarik" : "Melakukan camping"
  }, {
    "kode_dayatarik" : "T12",
    "nama_dayatarik" : "Agro perkebunan teh"
  }, {
    "kode_dayatarik" : "T13",
    "nama_dayatarik" : "Melakukan offroad"
  }, {
    "kode_dayatarik" : "T14",
    "nama_dayatarik" : "Lereng Gunung Kemulan"
  }, {
    "kode_dayatarik" : "T15",
    "nama_dayatarik" : "Melakukan outbound"
  }, {
    "kode_dayatarik" : "T16",
    "nama_dayatarik" : "Wahana permainan anak"
  }, {
    "kode_dayatarik" : "T17",
    "nama_dayatarik" : "Agro perkebunan buah"
  }, {
    "kode_dayatarik" : "T18",
    "nama_dayatarik" : "Kolam renang mata air pegunungan"
  }, {
    "kode_dayatarik" : "T19",
    "nama_dayatarik" : "Dua air terjun satu lokasi"
  }, {
    "kode_dayatarik" : "T20",
    "nama_dayatarik" : "Agro bunga Tengger"
  }, {
    "kode_dayatarik" : "T21",
    "nama_dayatarik" : "Pantai berbatu karang"
  }, {
    "kode_dayatarik" : "T22",
    "nama_dayatarik" : "Pelelangan ikan laut"
  }, {
    "kode_dayatarik" : "T23",
    "nama_dayatarik" : "Spot memancing di pantai"
  }, {
    "kode_dayatarik" : "T24",
    "nama_dayatarik" : "Pantai datar berpasir"
  }, {
    "kode_dayatarik" : "T25",
    "nama_dayatarik" : "Kafe tepi pantai"
  }, {
    "kode_dayatarik" : "T26",
    "nama_dayatarik" : "Pertunjukan kesenian"
  }, {
    "kode_dayatarik" : "T27",
    "nama_dayatarik" : "Pemandian mata air panas"
  }, {
    "kode_dayatarik" : "T28",
    "nama_dayatarik" : "Pantai berpasir dan berkarang"
  }, {
    "kode_dayatarik" : "T29",
    "nama_dayatarik" : "Ziarah makam Syekh Maulana Maghribi"
  }, {
    "kode_dayatarik" : "T30",
    "nama_dayatarik" : "Melihat PLTU Batang dari pantai"
  }, {
    "kode_dayatarik" : "T31",
    "nama_dayatarik" : "Kampung wali tertua di Jawa"
  }, {
    "kode_dayatarik" : "T32",
    "nama_dayatarik" : "Ziarah makam Auliya Wonobodro dan Bismo"
  }, {
    "kode_dayatarik" : "T33",
    "nama_dayatarik" : "Wahana air di pantai"
  }, {
    "kode_dayatarik" : "T34",
    "nama_dayatarik" : "Air terjun dikelelilingi tebing batu"
  }, {
    "kode_dayatarik" : "T35",
    "nama_dayatarik" : "Air terjun yang luas"
  }, {
    "kode_dayatarik" : "T36",
    "nama_dayatarik" : "Telaga alami bekas kawah"
  }, {
    "kode_dayatarik" : "T37",
    "nama_dayatarik" : "Pantai berpasir luas"
  }, {
    "kode_dayatarik" : "T38",
    "nama_dayatarik" : "Pantai dengan ombak landai"
  }, {
    "kode_dayatarik" : "T39",
    "nama_dayatarik" : "Air terjun tertinggi di Batang"
  }, {
    "kode_dayatarik" : "T40",
    "nama_dayatarik" : "Air terjun dengan debit deras"
  }, {
    "kode_dayatarik" : "T41",
    "nama_dayatarik" : "Air terjun dengan suasana hutan"
  }, {
    "kode_dayatarik" : "T42",
    "nama_dayatarik" : "Homestay di alam"
  }, {
    "kode_dayatarik" : "T43",
    "nama_dayatarik" : "River tubing"
  }, {
    "kode_dayatarik" : "T44",
    "nama_dayatarik" : "Lokasi terbang paralayang terbaik se-Jawa"
  }, {
    "kode_dayatarik" : "T45",
    "nama_dayatarik" : "Pertunjukan lumba-lumba"
  }, {
    "kode_dayatarik" : "T46",
    "nama_dayatarik" : "Taman satwa"
  }, {
    "kode_dayatarik" : "T47",
    "nama_dayatarik" : "Kolam renang standar nasional"
  }, {
    "kode_dayatarik" : "T48",
    "nama_dayatarik" : "Area olahgara"
  }, {
    "kode_dayatarik" : "T49",
    "nama_dayatarik" : "Suasana tempo dulu"
  }, {
    "kode_dayatarik" : "T50",
    "nama_dayatarik" : "Transaksi unik dengan koin khas"
  }, {
    "kode_dayatarik" : "T51",
    "nama_dayatarik" : "Kafe kopi paling terkenal di Batang"
  }, {
    "kode_dayatarik" : "T52",
    "nama_dayatarik" : "Ziarah makam Syekh Thollabuddin"
  } ],
  "CF_Rule" : [ null, {
    "id_rule" : 1,
    "kode_dayatarik" : "T1",
    "kode_wisata" : "W1",
    "nilai_cf" : "0.9"
  }, {
    "id_rule" : 2,
    "kode_dayatarik" : "T2",
    "kode_wisata" : "W1",
    "nilai_cf" : "0.6"
  }, {
    "id_rule" : 3,
    "kode_dayatarik" : "T3",
    "kode_wisata" : "W1",
    "nilai_cf" : "0.5"
  }, {
    "id_rule" : 4,
    "kode_dayatarik" : "T4",
    "kode_wisata" : "W2",
    "nilai_cf" : "0.9"
  }, {
    "id_rule" : 5,
    "kode_dayatarik" : "T5",
    "kode_wisata" : "W2",
    "nilai_cf" : "0.8"
  }, {
    "id_rule" : 6,
    "kode_dayatarik" : "T5",
    "kode_wisata" : "W3",
    "nilai_cf" : "0.6"
  }, {
    "id_rule" : 7,
    "kode_dayatarik" : "T6",
    "kode_wisata" : "W3",
    "nilai_cf" : "0.8"
  }, {
    "id_rule" : 8,
    "kode_dayatarik" : "T7",
    "kode_wisata" : "W3",
    "nilai_cf" : "0.7"
  }, {
    "id_rule" : 9,
    "kode_dayatarik" : "T8",
    "kode_wisata" : "W3",
    "nilai_cf" : "0.7"
  }, {
    "id_rule" : 10,
    "kode_dayatarik" : "T9",
    "kode_wisata" : "W4",
    "nilai_cf" : "0.8"
  }, {
    "id_rule" : 11,
    "kode_dayatarik" : "T10",
    "kode_wisata" : "W4",
    "nilai_cf" : "0.9"
  }, {
    "id_rule" : 12,
    "kode_dayatarik" : "T11",
    "kode_wisata" : "W4",
    "nilai_cf" : "0.5"
  } ],
  "CF_Wisata" : [ null, {
    "deskripsi" : "Kolam Ciblon Pandawa merupakan kolam renang di Kecamatan Tersono dengan air yang melimpah karena dipasok dari sumber mata air bukit Gondo. Kolam Ciblon Pandawa memiliki tiga kolam renang dengan dua diantaranya untuk anak-anak dan berada di bagian atas dari area kolam renang dengan kedalaman 40cm sampai 80cm, sedangkan untuk kolam satunya merupakan kolam renang dewasa atau juga dapat dijadikan kolam renang prestasi. Terdapat beragam fasilitas penunjunang hingga terdapat Aula untuk dapat digunakan pertemuan. Seiring berjalannya waktu, Kolam Ciblon Pandawa akan terus menambah daya tarik wisatanya untuk membantu mengusung program Visit to Batang 2022",
    "fasilitas" : "• Parkir luas\n• Kolam dewasa\n• Kolam anak\n• Permainan anak\n• Spot foto\n• Kamar mandi\n• kantin\n• Aula",
    "image_wisata" : "https://firebasestorage.googleapis.com/v0/b/testcertaintyfactor.appspot.com/o/Wisata%2F1_kolam%20ciblon%20pandawa.jpg?alt=media&token=d4da90eb-e165-4586-aee6-b4f78b8fdfd2",
    "jenis_wisata" : "Buatan",
    "ketinggian" : "303",
    "kode_wisata" : "W1",
    "lat_wisata" : "-7.034404",
    "lokasi_wisata" : "Rejosari Timur, Tersono",
    "long_wisata" : "109.961424",
    "nama_wisata" : "Kolam Ciblon Pandawa",
    "tiket" : "10000",
    "tiketdetail" : "• Tiket masuk : 10000/ orang",
    "wakturamai" : "11-16"
  }, {
    "deskripsi" : "Curug Pelangi atau biasanya warga sekitar menyebutnya Curug Bonpetung Mlangi karena aliran airnya dari sungai Mlangi. Curug ini memiliki akses jalan ke tempat parkir hanya cukup untuk kendaraan roda 2 saja karena memang hanya disediakan jalan setapak. Kurang lebih 5 menit dari tempat parkir Anda akan menyaksikan keindahan Air Terjunnya dan untuk jarak tracking tergolong dekat. Disini Anda dapat menyaksikan air terjun dari gardu pandang yang disediakan atau ke jembatan kayu sehingga Anda akan melihat secara luas air terjun ini.",
    "fasilitas" : "• Tempat parkir\n• Spot foto \n•Gardu pandang",
    "image_wisata" : "https://firebasestorage.googleapis.com/v0/b/testcertaintyfactor.appspot.com/o/Wisata%2Fcurug_pelangi.jpg?alt=media&token=a7dc0ce0-f4d9-4480-974e-2ab531b7914a",
    "jenis_wisata" : "Alam",
    "ketinggian" : "419",
    "kode_wisata" : "W2",
    "lat_wisata" : "-7.043257",
    "lokasi_wisata" : "Rejosari Barat, Tersono",
    "long_wisata" : "109.945381",
    "nama_wisata" : "Curug Pelangi",
    "tiket" : "-",
    "tiketdetail" : "-",
    "wakturamai" : "-"
  }, {
    "deskripsi" : "Lobang Polowono merupakan wisata alam berkonsep hutan yang asri dengan gardu pandang serta jembatan untuk dapat menghadap ke Kecamatan Limpung dari ketinggian. Hamparan pepohonan pinus menemani sepanjang jalan hingga sampai di Lobang Polowono. Apabila Anda ingin bermain air maka Anda dapat berjalan sedikit menyusuri hutan di kawasan Lobang Polowono untuk mendapatkan kesegaran dari air terjun yang ada dengan berjalan kaki sekitar 15 menit, namun apabila Anda ingin menikmati pemandangan sambil makan, Lobang Polowono baru menghadirkan sebuah Cafe yang menyuguhkan berbagai hidangan sehingga Lobang Polowono juga buka sampai malam hari",
    "fasilitas" : "• Parkir luas\n• Spot foto\n• Cafe\n• Toilet umum\n• Aula\n• Gardu pandang",
    "image_wisata" : "https://firebasestorage.googleapis.com/v0/b/testcertaintyfactor.appspot.com/o/Wisata%2Flobang.jpg?alt=media&token=d306cb64-db27-4f7f-94d1-eb23ed686d41",
    "jenis_wisata" : "Alam",
    "ketinggian" : "572",
    "kode_wisata" : "W3",
    "lat_wisata" : "-7.045953",
    "lokasi_wisata" : "Lobang, Limpung",
    "long_wisata" : "109.927275",
    "nama_wisata" : "Wisata Hutan Pinus Lobang Polowono",
    "tiket" : "5000",
    "tiketdetail" : "• Tiket masuk : 5000/ orang\n• Parkir : 2000",
    "wakturamai" : "12-19"
  }, {
    "deskripsi" : "Si Gemplong, dapat disebut negeri diatas awan yang ada di Kabupaten Batang, pesona jalur Batang-Dieng ini menyuguhkan pemandangan alam yang luar biasa meliputi pergunungan dan perbukitan. Apabila Anda berkunjung kesini pada pagi hari Anda besar kemunkginan akan takjub dengan suasana matahari terbit disini karena banyak masyarakat serta wisatawan menikmati pemandangan disini pada pagi hari. Tak hanya pesona matahari terbit aktivitas lainnya sembari menunggu matahari tenggelampun dapat Anda lakukan salah satunya ke Air Terjun yang ada pada kawasan Si Gemplong, atau juga bisa berziarah ke makam wali yang diyakini warga sekitar merupakan Syekh Saridin serta Anda juga bisa mendatangi tempat pemandian air panas, seiring berjalannya waktu Si Gemplong akan terus berinovasi dan berkreasi untuk menunjang program Visit to Batang 2022",
    "fasilitas" : "• Tempat parkir\n• Spot foto\n• Toilet umum\n• Kedai",
    "image_wisata" : "",
    "jenis_wisata" : "Alam",
    "ketinggian" : "1825",
    "kode_wisata" : "W4",
    "lat_wisata" : "-7.173250",
    "lokasi_wisata" : "Pranten, Bawang",
    "long_wisata" : "109.897177",
    "nama_wisata" : "Puncak Si Gemplong",
    "tiket" : "-",
    "tiketdetail" : "-",
    "wakturamai" : "04.30-09.00"
  }, {
    "deskripsi" : "Si Gembok Hill Top ini merupakan salah satu tempat yang dapat dimasukan ke tujuan Anda saat berkunjung ke Batang. Si Gembok Hill Top menawarkan wisata diatas ketinggian dengan nuansa kebun teh. Saat Anda berada disini Anda akan mendapatkan view langsung ke Kecamatan Bawang, apabila lapar disini juga tersedia cafe untuk bersantai wisatawan sembari menikmati pemandangan",
    "fasilitas" : "• Tempat parkir luas\n• Spot foto\n• Toilet umum\n• Mushola\n• Cafe",
    "image_wisata" : "https://firebasestorage.googleapis.com/v0/b/testcertaintyfactor.appspot.com/o/Wisata%2F1_sigembok.jpg?alt=media&token=bb2411d7-1937-4eb4-9147-c57b3474fdc7",
    "jenis_wisata" : "Alam",
    "ketinggian" : "1175",
    "kode_wisata" : "W5",
    "lat_wisata" : "-7.133117",
    "lokasi_wisata" : "Deles, Bawang",
    "long_wisata" : "109.903420",
    "nama_wisata" : "Si Gembok Hill Top",
    "tiket" : "10000",
    "tiketdetail" : "• Tiket masuk dan parkir : 10000/ orang",
    "wakturamai" : "11-14"
  }, {
    "deskripsi" : "Si Kembang Park merupakan salah satu wisata andalan di Kabupaten Batang yang ada di bawah rindangnya pohon pinus dan juga berada di atas ketinggian. Wisata ini cocok apabila Anda ingin mengekspresikan diri dengan berbagai hal semacam menyatu dengan alam karena memang rindangnya pohon pinus disini akan menyejukan pikiran Anda",
    "fasilitas" : "• Tempat parkir\n• Spot foto\n• Off-road\n• Homestay\n• Toilet Umum\n• Cafe\n• Terapi Ikan\n• Gardu Pandang\n• dll.",
    "image_wisata" : "",
    "jenis_wisata" : "Alam",
    "ketinggian" : "777",
    "kode_wisata" : "W6",
    "lat_wisata" : "-7.094082",
    "lokasi_wisata" : "Blado, Batang",
    "long_wisata" : "109.811794",
    "nama_wisata" : "Wisata Hutan Pinus Si Kembang Park",
    "tiket" : "5000",
    "tiketdetail" : "• Tiket masuk : 5000/orang\n• Bravo Kids Warrior : 35000/orang\n• Flying fox : 15000/ orang\n• Off-road : 50000/ mobil\n• Homestay 3 kamar : 300000/ malam\n• Homestay 4 kamar 600000 : 600000/ malam",
    "wakturamai" : "11.00-14.00"
  }, {
    "deskripsi" : "Siapa yang ingin berwisata dengan keluarga dengan beragam fasilitas ? setiap orang pastinya ya. Salah satu destinasi favorit di Kabupaten Batang adalah Agro Wisata Pagilaran Anda akan dapat menghabiskan waktu liburan yang jauh dari keramaian kota dengan bentangan kebun teh yang sangat luas serta juga terdapat berbagai fasilitas dan wisata penunjang di sekitarnya. Tak hanya itu, di Agro Wisata Pagilaran Anda juga dapat melihat sisa-sisa penjajahan Belanda yang masih terawat baik seperti halnya bangunan pabrik serta bekas kereta gantung ",
    "fasilitas" : "• Tempat parkir luas\n• Spot foto\n• Area bermain anak\n• Homestay\n• Spot foto\n• Toilet umum\n• Masjid\n• Ruang rapat\n• Gedung pertemuan\n• dll.",
    "image_wisata" : "https://firebasestorage.googleapis.com/v0/b/testcertaintyfactor.appspot.com/o/Wisata%2FDSC04453wm.jpg?alt=media&token=ef2c55f8-95c2-45ea-83f2-ee7402a9b085",
    "jenis_wisata" : "Agro",
    "ketinggian" : "973",
    "kode_wisata" : "W7",
    "lat_wisata" : "-7.110435",
    "lokasi_wisata" : "Keteleng, Blado",
    "long_wisata" : "109.853540",
    "nama_wisata" : "Agro Wisata Kebun Teh Pagilaran",
    "tiket" : "5000",
    "tiketdetail" : "• Tiket masuk : 5000/orang\n• Parkir : 3000\n• Homestay 30000-150000",
    "wakturamai" : "10-15"
  }, {
    "deskripsi" : "Agro Wisata Selopajang Timur ini menawarkan beragam pilihan wisata sebagai daya tariknya. Agro wisata yang terletak di kaki Gunung Kamulyan ini juga menawarkan hawa yang sejuk. Tempat wisata ini juga dikenal di kalangan masyarakat Batang untuk melakukan aktivitas luar ruangan serta berkemah dengan harga yang terjangkau. Area yang cukup luas ini juga cocok untuk berwisata bersama anak dan keluarga",
    "fasilitas" : "• Mushola\n• Spot foto\n• Lapangan\n• Aula/ Villa\n• Toilet umum & khusus\n• Katering\n• Panggung\n• Kolam Renang\n• Kolam Terapi",
    "image_wisata" : "",
    "jenis_wisata" : "Agro",
    "ketinggian" : "488",
    "kode_wisata" : "W8",
    "lat_wisata" : "-7.068729",
    "lokasi_wisata" : "Selopajang Timur, Blado",
    "long_wisata" : "109.854204",
    "nama_wisata" : "Agro Wisata Taman Buah Selopajang",
    "tiket" : "5000",
    "tiketdetail" : "• Tiket masuk : Gratis selama hari biasa (masa lebaran & tahun baru tiket 10000)\n• Kolam renang : 5000/ orang\n• Terapi ikan : 5000/ orang\n• Sewa Handboat : 5000/ menit\n• Sewa camping area : 5000/ orang/ hari\n• Sewa aula/ villa : 400000-500000/ malam (kapasitas 50 orang)",
    "wakturamai" : "10-16"
  }, {
    "deskripsi" : "Anda ingin wisata ke air terjun tak cuma satu dalam satu kawasan ? bagaimana dengan Curug Gombong ? Destinasi ini menawarkan dua sekaligus air terjun yaitu Air Terjun Lanang dan Air Terjun Wadon. Akses yang mudah karena telah dibuatkan tangga semen menuju air terjunpun menjadikan sarana yang sangat menunjang untuk melakukan wisata disini. Perbedaan antara Air Terjun Lanang dan Air Terjun Wadon adalah jika Anda ingin ke air terjun dengan satu aliran namun besar dan tinggi Anda dapat mengunjungi Air Terjun Lanang, namun apabila Anda ingin menikmati aliran lebih dari satu dan tidak terlalu tinggi Anda dapat mengunjungi Air Terjun Wadon disini juga sering dijadikan untuk kebutuhan foto prewedding",
    "fasilitas" : "• Tempat parkir luas\n• Mushola\n• Toilet umum",
    "image_wisata" : "https://firebasestorage.googleapis.com/v0/b/testcertaintyfactor.appspot.com/o/Wisata%2Fgombong.jpg?alt=media&token=1be24e8f-b2df-4439-b430-0ca425c24b6b",
    "jenis_wisata" : "Alam",
    "ketinggian" : "260",
    "kode_wisata" : "W9",
    "lat_wisata" : "-6.997131",
    "lokasi_wisata" : "Gombong, Pecalungan",
    "long_wisata" : "109.869205",
    "nama_wisata" : "Curug Gombong",
    "tiket" : "5000",
    "tiketdetail" : "• Tiket masuk : Gratis untuk hari biasa, 5000/ orang untuk hari libur",
    "wakturamai" : "-"
  }, {
    "deskripsi" : "Sri Gunung merupakan destinasi di Batang yang berada di atas bukit yang dekat dengan Pantai Celong. Dari sini Anda dapat melihat jalan tol trans jawa beserta Pantai Celong. Apabila Anda beruntung Anda dapat menikmati atlet Paralayang yang saling mengangkasa di kawasan ini. Tempat ini juga buka hingga malam hari karena terdapat cafe di area wisatanya yang pastinya Anda dapat menikmati hidangan serta melihat lalu lalang kendaraan di toll trans jawa dari ketingian",
    "fasilitas" : "• Tempat parkir luas\n• Spot foto\n• Taman bermain\n• Gardu pandang\n• Kafe\n• Toilet\n• Kolam terapi\n Kolam renang",
    "image_wisata" : "",
    "jenis_wisata" : "Rekreasi",
    "ketinggian" : "279",
    "kode_wisata" : "W10",
    "lat_wisata" : "-6.955254",
    "lokasi_wisata" : "Kedawung, Banyuputih",
    "long_wisata" : "109.928546",
    "nama_wisata" : "Bukit Sri Gunung",
    "tiket" : "10000",
    "tiketdetail" : "• TIket masuk : 10000\n• Parkir : 2000",
    "wakturamai" : "10.00-16.00"
  }, {
    "deskripsi" : "Pantai Celong memiliki daya tarik satu-satunya pantai yang berbatu di Kabupaten Batang. Tak hanya itu pantai ini juga dikenal untuk para pemancing sebagai spot memancing di Kabupaten Batang. Apabila Anda ingin membeli ikan ? Anda juga dapat ikut serta dalam lelangan yang ada di pantai ini. Dengan harga tiket yang murah dan bahkan apabila hari libur besar harga tiket Pantai Celong justru turun menjadi 2500/ orang sehingga sangat rekomendasi apabila Anda ingin berkunjung ke pantai dengan kontur berbatu dan sangat terjangkau",
    "fasilitas" : "• Tempat parkir luas\n• Spot foto\n• Kamar mandi umum\n• Toilet umum\n• Tempat pemancingan\n• Kedai",
    "image_wisata" : "",
    "jenis_wisata" : "Alam",
    "ketinggian" : "4",
    "kode_wisata" : "W11",
    "lat_wisata" : "-6.914756",
    "lokasi_wisata" : "Kedawung, Banyuputih",
    "long_wisata" : "109.932261",
    "nama_wisata" : "Pantai Celong",
    "tiket" : "3000",
    "tiketdetail" : "• Tiket masuk 3000/ orang",
    "wakturamai" : "09.00-17.00"
  }, {
    "deskripsi" : "Pantai Sigandu merupakan pantai yang saat ini hits di Kabupaten Batang khususnya untuk muda-mudi karena hampir sepanjang bentangan pantai ini jika sore hari terdapat kedai cafe yang buka dengan kelap kelip hiasan lampu yang menambah kesan seru jika untuk nongkrong. Kontur pantai berpasir dan lokasi sekitar yang juga mendukung untuk wisata juga sebagai daya tarik wisatanya sebagaimana disekitar pantai tersebut terdapat Dolphin Center yang digagas oleh Taman Safari Indonesia sehingga apabila Anda sudah bosan menikmati pantai, Anda dapat menikmati wisata lainnya di kawasan Pantai Sigandu ini.",
    "fasilitas" : "• Tempat parkir luas\n• Spot foto\n• Kamar mandi umum\n• Toilet umum\n• Kedai\n Area bermain",
    "image_wisata" : "",
    "jenis_wisata" : "Alam",
    "ketinggian" : "1",
    "kode_wisata" : "W12",
    "lat_wisata" : "-6.881403",
    "lokasi_wisata" : "Klidang Lor, Batang",
    "long_wisata" : "109.753372",
    "nama_wisata" : "Pantai Sigandu",
    "tiket" : "5000",
    "tiketdetail" : "• Tiket masuk : 5000/ orang\n• Dolphin Center : 40000/ orang",
    "wakturamai" : "14.00-19.00"
  }, {
    "deskripsi" : "Taman Hiburan Rakyat Kramat merupakan salah satu ikon Batang yang tua yang telah direnovasi belum lama, tempat wisata ini berada dekat dengan ibu kota namun memiliki kerindangan di wisatanya. Terdapat dua kolam renang yang ada di sini yaitu kolam renang untuk anak dan kolam renang yang memiliki standar nasional.",
    "fasilitas" : "• Tempat parkir\n• Kamar mandi umum\n• Kolam renang",
    "image_wisata" : "",
    "jenis_wisata" : "Rekreasi",
    "ketinggian" : "17",
    "kode_wisata" : "W13",
    "lat_wisata" : "-6.924680",
    "lokasi_wisata" : "Proyonanggan Selatan, Batang",
    "long_wisata" : "109.733736",
    "nama_wisata" : "Taman Hiburan Rakyat Kramat",
    "tiket" : "10000",
    "tiketdetail" : "• Tiket masuk : 10000/ orang",
    "wakturamai" : "11.00-15.00"
  }, {
    "deskripsi" : "Pemandian air panas yang teletak di Kecamatan Bawang ini memiliki suasana yang rindang karena banyaknya pepohonan. Tak hanya itu pemandian ini juga dikelilingi oleh perbukitan tebing sehingga menambah kesan berendam di alam terbuka. Pemandian ini menawarkan tiket yang terjangkau untuk berwisata sepuasnya di dalam sehingga tak jarang pengunjung disini cukup ramai apalagi saat liburan.",
    "fasilitas" : "• Tempat parkir\n• Spot foto\n• Kamar mandi umum\n• kedai",
    "image_wisata" : "https://firebasestorage.googleapis.com/v0/b/testcertaintyfactor.appspot.com/o/Wisata%2F1_sangubanyu.jpg?alt=media&token=6d7c0281-9556-4fca-a825-221745c8f795",
    "jenis_wisata" : "Rekreasi",
    "ketinggian" : "651",
    "kode_wisata" : "W14",
    "lat_wisata" : "-7.099438",
    "lokasi_wisata" : "Sangubanyu, Bawang",
    "long_wisata" : "109.963322",
    "nama_wisata" : "Pemandian Sangubanyu",
    "tiket" : "5000",
    "tiketdetail" : "• Tiket masuk : 50000/ orang\n• Parkir : 2000",
    "wakturamai" : "10-15"
  }, {
    "deskripsi" : "Pantai Ujung Negoro memiliki dua kontur pantai yaitu sedikit bebatuan dan berpasir, pantai yang dikenal juga karena terdapat makam Syeikh Maulana Maghribi ini terletak di bawahnya. Tak hanya pantai dan makam, disini Anda juga dapat menemukan goa yang memiliki nama Aswatama. Pantai ini dahulu sebelum dijadikan destinasi wisata sebenarnya dijadikan tempat ziarah karena terdapat makam Syeikh Maulana Maghribi. Namun sekarang Pantai Ujung Negoro ini juga menjadi salah satu daya tarik wisatwan untuk berkunjung karena keindahannya",
    "fasilitas" : "• Tempat parkir luas\n• Mushola\n• Kamar mandi umum\n• kedai",
    "image_wisata" : "",
    "jenis_wisata" : "Alam",
    "ketinggian" : "9",
    "kode_wisata" : "W15",
    "lat_wisata" : "-6.891577",
    "lokasi_wisata" : "Ujung Negoro, Kandeman",
    "long_wisata" : "109.797413",
    "nama_wisata" : "Pantai Ujung Negoro",
    "tiket" : "5000",
    "tiketdetail" : "• Tiket masuk : 5000/ orang",
    "wakturamai" : "14.00-17.00"
  }, {
    "deskripsi" : "Curug Agung memiliki ketinggian yang tidak terlalu tinggi, namun curug ini memiliki kolam tampungan dengan kedalaman hingga sekitar 1,5 meter. Kawasan pada Curug Agung juga cukup luas dengan ornamen bebatuan tebing alami yang mengelilingi curug tersebut. Konon Curug Agung ini pernah digunakan untuk tempat mandi seoarang Petapa yang berasal dari Kerajaan Kalingga",
    "fasilitas" : "• Tempat parkir\n• Mushola\n• Kamar mandi\n• Penginapan",
    "image_wisata" : "",
    "jenis_wisata" : "Alam",
    "ketinggian" : "696",
    "kode_wisata" : "W16",
    "lat_wisata" : "-7.0929149598103995",
    "lokasi_wisata" : "Pasusukan, Bawang",
    "long_wisata" : "109.93719551349508",
    "nama_wisata" : "Curug Agung",
    "tiket" : "-",
    "tiketdetail" : "-",
    "wakturamai" : "-"
  }, {
    "deskripsi" : "Telaga Dringo atau juga biasa disebut Si Dringo merupakan telaga dari letusan gunung. Telaga ini berada di perbatasan Batang dan Banjarnegara. Telaga ini mendapati julukan Ranukumbolonya Jawa Tengah karena. Telaga ini jaraknya cukup dengat dengan kawasan wisata Dieng khususnya kawah candradimuka. Telaga ini memang jarang orang berkunjung dengan jalanan yang harus treking selama kurang lebih 20 menit melalui tanah dan berbatu. Namun tak jarang juga apabila ada wisatawan kesini mereka akan melakukan camping.",
    "fasilitas" : "-",
    "image_wisata" : "",
    "jenis_wisata" : "Alam",
    "ketinggian" : "2037",
    "kode_wisata" : "W17",
    "lat_wisata" : "-7.186240684844874",
    "lokasi_wisata" : "Gerlang, Blado",
    "long_wisata" : "109.84794941042753",
    "nama_wisata" : "Telaga Dringo",
    "tiket" : "-",
    "tiketdetail" : "-",
    "wakturamai" : "-"
  }, {
    "deskripsi" : "Pantai yang berada di sisi timur Kabupaten Batang ini masih memiliki hamparan pasir pantai yang luas, bahkan dapat dikatakan hamparan pasir pantai yang dimiliki oleh Pantai Jodo adalah terluas di Kabupaten Batang. Tak hanya itu, Pantai Jodo juga memiliki ombah yang tidak terlalu pasang sehingga cocok untuk mengajak keluarga yang mempunyai anak kecil untuk bermain di tepi pantai.",
    "fasilitas" : "• Tempat parkir\n• Kamar mandi",
    "image_wisata" : "",
    "jenis_wisata" : "Alam",
    "ketinggian" : "0",
    "kode_wisata" : "W18",
    "lat_wisata" : "-6.9217748115133295",
    "lokasi_wisata" : "Sidorejo, Gringsing",
    "long_wisata" : "109.99856911018155",
    "nama_wisata" : "Pantai Jodo",
    "tiket" : "5000",
    "tiketdetail" : "• Sewa tikar : 5000\n• Sewa kursi pantai : 5000",
    "wakturamai" : "07.00-12.00"
  }, {
    "deskripsi" : "Curug Lojahan merupakan air terjun dengan ketinggian 40 meter. Air terjun ini merupakan air terjun tertinggi di Kabupaten Batang. Air Terjun Lojahan juga dilengkapi suasana alami dan asri berupa dipenuhi oleh tumbuhan hijau di sekelilingnya. Namun, untuk akses ke air terjun ini Anda harus siap untuk treking yang cukup jauh, tapi nanti kelelahan Anda dapat terbayarkan oleh pemandangannya.",
    "fasilitas" : "• Tempat parkir",
    "image_wisata" : "",
    "jenis_wisata" : "Alam",
    "ketinggian" : "1229",
    "kode_wisata" : "W19",
    "lat_wisata" : "-7.138319381350995",
    "lokasi_wisata" : "Kalitengah, Blado",
    "long_wisata" : "109.81047908272913",
    "nama_wisata" : "Curug Lojahan",
    "tiket" : "-",
    "tiketdetail" : "-",
    "wakturamai" : "-"
  }, {
    "deskripsi" : "Curug Genting merupakan salah satu curug favorit warga Batang, curug ini juga cukup terkenal dikalangan wisatawan luar daerah. Curug Genting memiliki nuansa alami, serta juga terdapat gardu pandang sehingga pengunjung dapat melihat curug dari atas tebing. Untuk akses dari tempat parkir Anda harus menuruni anak tangga namun akan sampai di curug Anda akan langsung berada di kawasan aliran sungai dari Curug Genting tersebut",
    "fasilitas" : "• Tempat parkir",
    "image_wisata" : "",
    "jenis_wisata" : "Alam",
    "ketinggian" : "892",
    "kode_wisata" : "W20",
    "lat_wisata" : "-7.104805226464242",
    "lokasi_wisata" : "Bawang, Blado",
    "long_wisata" : "109.82125572875744",
    "nama_wisata" : "Curug Genting",
    "tiket" : "5000",
    "tiketdetail" : "-",
    "wakturamai" : "10.00-15.00"
  }, {
    "deskripsi" : "",
    "fasilitas" : "",
    "image_wisata" : "",
    "jenis_wisata" : "Alam",
    "ketinggian" : "777",
    "kode_wisata" : "W21",
    "lat_wisata" : "-7.093800033799085",
    "lokasi_wisata" : "Kembanglangit, Blado",
    "long_wisata" : "109.81198667162866",
    "nama_wisata" : "Si Kembang Park",
    "tiket" : "5000",
    "tiketdetail" : "-",
    "wakturamai" : "10.00-15.00"
  }, {
    "deskripsi" : "",
    "fasilitas" : "",
    "image_wisata" : "",
    "jenis_wisata" : "",
    "ketinggian" : "",
    "kode_wisata" : "W22",
    "lat_wisata" : "",
    "lokasi_wisata" : "",
    "long_wisata" : "",
    "nama_wisata" : "Tubing Pandansari",
    "tiket" : "-",
    "tiketdetail" : "-",
    "wakturamai" : ""
  }, {
    "deskripsi" : "",
    "fasilitas" : "",
    "image_wisata" : "",
    "jenis_wisata" : "",
    "ketinggian" : "",
    "kode_wisata" : "W23",
    "lat_wisata" : "",
    "lokasi_wisata" : "",
    "long_wisata" : "",
    "nama_wisata" : "Wisata Paralayang Batang",
    "tiket" : "-",
    "tiketdetail" : "-",
    "wakturamai" : ""
  }, {
    "deskripsi" : "",
    "fasilitas" : "",
    "image_wisata" : "",
    "jenis_wisata" : "",
    "ketinggian" : "",
    "kode_wisata" : "W24",
    "lat_wisata" : "",
    "lokasi_wisata" : "",
    "long_wisata" : "",
    "nama_wisata" : "Batang Dolphin Center",
    "tiket" : "-",
    "tiketdetail" : "-",
    "wakturamai" : ""
  }, {
    "deskripsi" : "",
    "fasilitas" : "",
    "image_wisata" : "",
    "jenis_wisata" : "",
    "ketinggian" : "",
    "kode_wisata" : "W25",
    "lat_wisata" : "",
    "lokasi_wisata" : "",
    "long_wisata" : "",
    "nama_wisata" : "Gajah Mada Sport Center",
    "tiket" : "-",
    "tiketdetail" : "-",
    "wakturamai" : ""
  }, {
    "deskripsi" : "",
    "fasilitas" : "",
    "image_wisata" : "",
    "jenis_wisata" : "",
    "ketinggian" : "",
    "kode_wisata" : "W26",
    "lat_wisata" : "",
    "lokasi_wisata" : "",
    "long_wisata" : "",
    "nama_wisata" : "Minggon Jatinan",
    "tiket" : "-",
    "tiketdetail" : "-",
    "wakturamai" : ""
  }, {
    "deskripsi" : "",
    "fasilitas" : "",
    "image_wisata" : "",
    "jenis_wisata" : "",
    "ketinggian" : "",
    "kode_wisata" : "W27",
    "lat_wisata" : "",
    "lokasi_wisata" : "",
    "long_wisata" : "",
    "nama_wisata" : "Forest Kopi",
    "tiket" : "-",
    "tiketdetail" : "-",
    "wakturamai" : ""
  }, {
    "deskripsi" : "",
    "fasilitas" : "",
    "image_wisata" : "",
    "jenis_wisata" : "",
    "ketinggian" : "",
    "kode_wisata" : "W28",
    "lat_wisata" : "",
    "lokasi_wisata" : "",
    "long_wisata" : "",
    "nama_wisata" : "Makam Syekh Maulana Maghribi",
    "tiket" : "-",
    "tiketdetail" : "-",
    "wakturamai" : ""
  }, {
    "deskripsi" : "",
    "fasilitas" : "",
    "image_wisata" : "",
    "jenis_wisata" : "",
    "ketinggian" : "",
    "kode_wisata" : "W29",
    "lat_wisata" : "",
    "lokasi_wisata" : "",
    "long_wisata" : "",
    "nama_wisata" : "Makam Auliya Wonobodro dan Bismo",
    "tiket" : "-",
    "tiketdetail" : "-",
    "wakturamai" : ""
  }, {
    "deskripsi" : "",
    "fasilitas" : "",
    "image_wisata" : "",
    "jenis_wisata" : "",
    "ketinggian" : "",
    "kode_wisata" : "W30",
    "lat_wisata" : "",
    "lokasi_wisata" : "",
    "long_wisata" : "",
    "nama_wisata" : "Makam Syekh Thollabuddin",
    "tiket" : "-",
    "tiketdetail" : "-",
    "wakturamai" : ""
  } ],
  "JenisWisata" : {
    "Agro" : {
      "deskripsijeniswisata" : "x",
      "fotojeniswisata" : "https://firebasestorage.googleapis.com/v0/b/testcertaintyfactor.appspot.com/o/Wisata%2FDSC04453wm.jpg?alt=media&token=ef2c55f8-95c2-45ea-83f2-ee7402a9b085",
      "namajeniswisata" : "Wisata Agro",
      "pass" : "Agro"
    },
    "Alam" : {
      "deskripsijeniswisata" : "x",
      "fotojeniswisata" : "https://firebasestorage.googleapis.com/v0/b/testcertaintyfactor.appspot.com/o/Wisata%2Fcurug_pelangi.jpg?alt=media&token=a7dc0ce0-f4d9-4480-974e-2ab531b7914a",
      "namajeniswisata" : "Wisata Alam",
      "pass" : "Alam"
    },
    "Buatan" : {
      "deskripsijeniswisata" : "x",
      "fotojeniswisata" : "https://firebasestorage.googleapis.com/v0/b/testcertaintyfactor.appspot.com/o/Wisata%2Fcurug_pelangi.jpg?alt=media&token=a7dc0ce0-f4d9-4480-974e-2ab531b7914a",
      "namajeniswisata" : "Wisata Buatan",
      "pass" : "Buatan"
    },
    "Kuliner" : {
      "deskripsijeniswisata" : "x",
      "fotojeniswisata" : "https://firebasestorage.googleapis.com/v0/b/testcertaintyfactor.appspot.com/o/Wisata%2Fcurug_pelangi.jpg?alt=media&token=a7dc0ce0-f4d9-4480-974e-2ab531b7914a",
      "namajeniswisata" : "Wisata Kuliner",
      "pass" : "Kuliner"
    },
    "Minat" : {
      "deskripsijeniswisata" : "x",
      "fotojeniswisata" : "https://firebasestorage.googleapis.com/v0/b/testcertaintyfactor.appspot.com/o/Wisata%2Fcurug_pelangi.jpg?alt=media&token=a7dc0ce0-f4d9-4480-974e-2ab531b7914a",
      "namajeniswisata" : "Wisata Minat Khusus",
      "pass" : "Minat Khusus"
    },
    "Religi" : {
      "deskripsijeniswisata" : "x",
      "fotojeniswisata" : "https://firebasestorage.googleapis.com/v0/b/testcertaintyfactor.appspot.com/o/Wisata%2Fcurug_pelangi.jpg?alt=media&token=a7dc0ce0-f4d9-4480-974e-2ab531b7914a",
      "namajeniswisata" : "Religi",
      "pass" : "Religi"
    }
  }
}
